>>> Warning 203 "C:\Program Files (x86)\PICC\drivers\pic18_usb.c" Line 531(1,1): Condition always TRUE
>>> Warning 216 "sluy_v2.c" Line 1096(0,1): Interrupts disabled during call to prevent re-entrancy:  (usb_token_reset)
>>> Warning 216 "sluy_v2.c" Line 1096(0,1): Interrupts disabled during call to prevent re-entrancy:  (usb_cdc_get_discard)
>>> Warning 216 "sluy_v2.c" Line 1096(0,1): Interrupts disabled during call to prevent re-entrancy:  (usb_tbe)
>>> Warning 216 "sluy_v2.c" Line 1096(0,1): Interrupts disabled during call to prevent re-entrancy:  (usb_cdc_flush_out_buffer)
>>> Warning 202 "sluy_v2.c" Line 59(39,70): Variable never used:   DEBOUNCE_LLAVE_ADMINISTRADOR_MS
>>> Warning 202 "sluy_v2.c" Line 137(7,34): Variable never used:   contadorSecuenciadorSegundo
      Memory usage:   ROM=24%      RAM=23% - 26%
      0 Errors,  7 Warnings.
